Welcome to OX Game
- - -
- - -
- - -
Turn X
Please input(row,col):2 1
- - -
X - -
- - -
Turn O
Please input(row,col):1 1
O - -
X - -
- - -
Turn X
Please input(row,col):2 2
O - -
X X -
- - -
Turn O
Please input(row,col):1 3
O - O
X X -
- - -
Turn X
Please input(row,col):2 3
O - O
X X X
- - -
!!!! X WIN !!!!

Welcome to OX Game
- - -
- - -
- - -
Turn X
Please input(row,col):1 1
X - -
- - -
- - -
Turn O
Please input(row,col):1 2
X O -
- - -
- - -
Turn X
Please input(row,col):2 1
X O -
X - -
- - -
Turn O
Please input(row,col):2 2
X O -
X O -
- - -
Turn X
Please input(row,col):3 1
X O -
X O -
X - -
!!!! X WIN !!!!

Welcome to OX Game
- - -
- - -
- - -
Turn X
Please input(row,col):1 1
X - -
- - -
- - -
Turn O
Please input(row,col):1 2
X O -
- - -
- - -
Turn X
Please input(row,col):2 2
X O -
- X -
- - -
Turn O
Please input(row,col):1 3
X O O
- X -
- - -
Turn X
Please input(row,col):3 3
X O O
- X -
- - X
!!!! X WIN !!!!

Welcome to OX Game
- - -
- - -
- - -
Turn X
Please input(row,col):1 3
- - X
- - -
- - -
Turn O
Please input(row,col):1 2
- O X
- - -
- - -
Turn X
Please input(row,col):2 2
- O X
- X -
- - -
Turn O
Please input(row,col):2 3
- O X
- X O
- - -
Turn X
Please input(row,col):3 1
- O X
- X O
X - -
!!!! X WIN !!!!

Welcome to OX Game
- - -
- - -
- - -
Turn X
Please input(row,col):1 1
X - -
- - -
- - -
Turn O
Please input(row,col):3 1
X - -
- - -
O - -
Turn X
Please input(row,col):1 2
X X -
- - -
O - -
Turn O
Please input(row,col):3 2
X X -
- - -
O O -
Turn X
Please input(row,col):2 3
X X -
- - X
O O -
Turn O
Please input(row,col):3 3
X X -
- - X
O O O
!!!! O WIN !!!!

Welcome to OX Game
- - -
- - -
- - -
Turn X
Please input(row,col):1 1
X - -
- - -
- - -
Turn O
Please input(row,col):1 2
X O -
- - -
- - -
Turn X
Please input(row,col):2 1
X O -
X - -
- - -
Turn O
Please input(row,col):2 2
X O -
X O -
- - -
Turn X
Please input(row,col):3 3
X O -
X O -
- - X
Turn O
Please input(row,col):3 2
X O -
X O -
- O X
!!!! O WIN !!!!

Welcome to OX Game
- - -
- - -
- - -
Turn X
Please input(row,col):1 1
X - -
- - -
- - -
Turn O
Please input(row,col):1 2
X O -
- - -
- - -
Turn X
Please input(row,col):2 1
X O -
X - -
- - -
Turn O
Please input(row,col):2 2
X O -
X O -
- - -
Turn X
Please input(row,col):3 2
X O -
X O -
- X -
Turn O
Please input(row,col):3 3
X O -
X O -
- X O
!!!! O WIN !!!!

Welcome to OX Game
- - -
- - -
- - -
Turn X
Please input(row,col):1 1
X - -
- - -
- - -
Turn O
Please input(row,col):1 3
X - O
- - -
- - -
Turn X
Please input(row,col):2 1
X - O
X - -
- - -
Turn O
Please input(row,col):2 2
X - O
X O -
- - -
Turn X
Please input(row,col):3 3
X - O
X O -
- - X
Turn O
Please input(row,col):3 1
X - O
X O -
O - X
!!!! O WIN !!!!

Welcome to OX Game
- - -
- - -
- - -
Turn X
Please input(row,col):1 1
X - -
- - -
- - -
Turn O
Please input(row,col):1 2
X O -
- - -
- - -
Turn X
Please input(row,col):1 3
X O X
- - -
- - -
Turn O
Please input(row,col):2 1
X O X
O - -
- - -
Turn X
Please input(row,col):2 2
X O X
O X -
- - -
Turn O
Please input(row,col):2 3
X O X
O X O
- - -
Turn X
Please input(row,col):3 1
X O X
O X O
X - -
Turn O
Please input(row,col):3 2
X O X
O X O
X O -
Turn X
Please input(row,col):3 3
X O X
O X O
X O X
!!!! DRAW !!!!

Welcome to OX Game
- - -
- - -
- - -
Turn X
Please input(row,col):1 1
X - -
- - -
- - -
Turn O
Please input(row,col):1 1
Error: The cell (1, 1) is already occupied.

Welcome to OX Game
- - -
- - -
- - -
Turn X
Please input(row,col):1 4
Error: The cell (1, 4) is out of bounds.
Turn X